An Incomplete Solutions Guide to the NIST/SEMATECH e-Handbook of Statistical Methods
…
Normal probility plot

1.4 Case studies from chapter 1 of the NIST/SEMATECH e-Handbook

1.4.1 Normal random numbers

Normal Random Numbers

normal_random_numbers <- scan("NIST data/RANDN.DAT", skip = 25) %>% 
  as.tibble() %>%
  rowid_to_column()

normal_random_numbers

## # A tibble: 500 x 2
##    rowid  value
##    <int>  <dbl>
##  1     1 -1.28 
##  2     2 -1.22 
##  3     3 -0.453
##  4     4 -0.350
##  5     5  0.723
##  6     6  0.676
##  7     7 -1.10 
##  8     8 -0.314
##  9     9 -0.394
## 10    10 -0.633
## # ... with 490 more rows
…
1.4.2 Uniform random numbers

Uniform Random Numbers

uniform_random_numbers <- scan("NIST data/RANDU.DAT", skip = 25) %>% 
  as.tibble() %>%
  rowid_to_column()

uniform_random_numbers

## # A tibble: 500 x 2
##    rowid value
##    <int> <dbl>
##  1     1 0.101
##  2     2 0.253
##  3     3 0.520
##  4     4 0.863
##  5     5 0.355
##  6     6 0.810
##  7     7 0.912
##  8     8 0.293
##  9     9 0.375
## 10    10 0.481
## # ... with 490 more rows
…
1.4.3 Random walk

Random Walk

random_walk <- scan("NIST data/RANDWALK.DAT", skip = 25) %>% 
  as.tibble() %>%
  rowid_to_column()

random_walk

## # A tibble: 500 x 2
##    rowid   value
##    <int>   <dbl>
##  1     1 -0.399 
##  2     2 -0.646 
##  3     3 -0.626 
##  4     4 -0.262 
##  5     5 -0.407 
##  6     6 -0.0976
##  7     7  0.314 
##  8     8  0.107 
##  9     9 -0.0177
## 10    10 -0.0371
## # ... with 490 more rows
…
1.4.4 Beam deflections

Beam Deflections

beam_deflections <- scan("NIST data/LEW.DAT", skip = 25) %>% 
  as.tibble() %>%
  rowid_to_column()

beam_deflections

## # A tibble: 200 x 2
##    rowid value
##    <int> <dbl>
##  1     1 -213.
##  2     2 -564.
##  3     3  -35.
##  4     4  -15.
##  5     5  141.
##  6     6  115.
##  7     7 -420.
##  8     8 -360.
##  9     9  203.
## 10    10 -338.
## # ... with 190 more rows
…
1.4.5 Filter transmitance

Filter Transmitance

filter_transmitance <- scan("NIST data/MAVRO.DAT", skip = 25) %>% 
  as.tibble() %>%
  rowid_to_column()

filter_transmitance

## # A tibble: 50 x 2
##    rowid value
##    <int> <dbl>
##  1     1  2.00
##  2     2  2.00
##  3     3  2.00
##  4     4  2.00
##  5     5  2.00
##  6     6  2.00
##  7     7  2.00
##  8     8  2.00
##  9     9  2.00
## 10    10  2.00
## # ... with 40 more rows
…
standard_resistor <- read_table2("NIST data/DZIUBA1.DAT", skip = 25, col_names = FALSE) %>% 
  rowid_to_column() %>%
  rename(month = X1, day = X2, year = X3, resistance = X4)

## Parsed with column specification:
## cols(
##   X1 = col_character(),
##   X2 = col_character(),
##   X3 = col_integer(),
##   X4 = col_double()
## )

standard_resistor

## # A tibble: 1,000 x 5
##    rowid month day    year resistance
##    <int> <chr> <chr> <int>      <dbl>
##  1     1 2     5        80       27.9
##  2     2 2     12       80       27.9
##  3     3 2     13       80       27.9
##  4     4 2     14       80       27.9
##  5     5 2     28       80       27.9
##  6     6 2     28       80       27.9
##  7     7 3     21       80       27.9
##  8     8 3     24       80       27.9
##  9     9 4     3        80       27.9
## 10    10 4     3        80       27.9
## # ... with 990 more rows
…
1.4.7 Heat flow meter 1

Heat Flow Meter 1

heat_flow_meter1 <- scan("NIST data/ZARR13.DAT", skip = 25) %>% 
  as.tibble() %>%
  rowid_to_column()

heat_flow_meter1

## # A tibble: 195 x 2
##    rowid value
##    <int> <dbl>
##  1     1  9.21
##  2     2  9.30
##  3     3  9.28
##  4     4  9.31
##  5     5  9.28
##  6     6  9.29
##  7     7  9.29
##  8     8  9.26
##  9     9  9.30
## 10    10  9.28
## # ... with 185 more rows
…
## Warning in rbind(names(probs), probs_f): number of columns of result is not
## a multiple of vector length (arg 2)

## Warning: 1 parsing failure.
## row # A tibble: 1 x 5 col     row col   expected   actual    file                     expected   <int> <chr> <chr>      <chr>     <chr>                    actual 1     1 <NA>  16 columns 1 columns 'NIST data/JAHANMI2.DAT' file # A tibble: 1 x 5

ceramic_strength

## # A tibble: 480 x 17
##    rowid Id      Lab   Num  Test     Y    X1    X2    X3    X4   Trt   Set
##    <int> <chr> <int> <int> <int> <dbl> <int> <int> <int> <int> <int> <int>
##  1     1 1         1     1     1  609.    -1    -1    -1    -1     1     1
##  2     2 2         1     2     1  570.    -1    -1    -1    -1     1     1
##  3     3 3         1     3     1  690.    -1    -1    -1    -1     1     1
##  4     4 4         1     4     1  748.    -1    -1    -1    -1     1     1
##  5     5 5         1     5     1  618.    -1    -1    -1    -1     1     1
##  6     6 6         1     6     1  612.    -1    -1    -1    -1     1     1
##  7     7 7         1     7     1  680.    -1    -1    -1    -1     1     1
##  8     8 8         1     8     1  608.    -1    -1    -1    -1     1     1
##  9     9 9         1     9     1  726.    -1    -1    -1    -1     1     1
## 10    10 10        1    10     1  605.    -1    -1    -1    -1     1     1
## # ... with 470 more rows, and 5 more variables: Llab <dbl>, Rep <int>,
## #   Bat <int>, Sblab <dbl>, Set2 <int>
…
