An Incomplete Solutions Guide to the NIST/SEMATECH e-Handbook of Statistical Methods
…
random_xy_table <- tibble(n = 1:n_darts, x = x_test, y = y_test) %>%
  mutate(r = sqrt(x^2 + y^2),
  dart_circle = case_when(
    r <= 1 ~ 1,
    r > 1 ~ 0
  )
  )

random_xy_table

## # A tibble: 1,000,000 x 5
##        n       x      y     r dart_circle
##    <int>   <dbl>  <dbl> <dbl>       <dbl>
##  1     1  0.739  -0.999 1.24           0.
##  2     2  0.385  -0.560 0.680          1.
##  3     3 -0.448  -0.627 0.771          1.
##  4     4  0.446   0.740 0.864          1.
##  5     5  0.0918 -0.521 0.529          1.
##  6     6  0.848   0.484 0.977          1.
##  7     7 -0.623   0.443 0.764          1.
##  8     8 -0.379   0.319 0.496          1.
##  9     9  0.303  -0.694 0.757          1.
## 10    10  0.863   0.966 1.30           0.
## # ... with 999,990 more rows
…
