An Incomplete Solutions Guide to the NIST/SEMATECH e-Handbook of Statistical Methods
…
check_standard

## # A tibble: 25 x 14
##    rowid Crystal_ID Wafer_ID Month Day   Hour  Minute Operator Humidity
##    <int>      <int>    <int> <chr> <chr> <chr> <chr>     <int>    <int>
##  1     1      51939      137 03    24    18    01            1       42
##  2     2      51939      137 03    25    12    41            1       35
##  3     3      51939      137 03    25    15    57            1       33
##  4     4      51939      137 03    28    10    10            2       47
##  5     5      51939      137 03    28    13    31            2       44
##  6     6      51939      137 03    28    17    33            1       43
##  7     7      51939      137 03    29    14    40            1       36
##  8     8      51939      137 03    29    16    33            1       35
##  9     9      51939      137 03    30    05    45            2       32
## 10    10      51939      137 03    30    09    26            2       33
## # ... with 15 more rows, and 5 more variables: Probe_ID <int>,
## #   Temperature <dbl>, Resistance <dbl>, Stdev <dbl>, Df <int>
…
gauge_study

## # A tibble: 300 x 10
##    rowid   RUN WAFER PROBE MONTH   DAY    OP  TEMP AVERAGE STDDEV
##    <int> <int> <dbl> <dbl> <dbl> <dbl> <dbl> <dbl>   <dbl>  <dbl>
##  1     1     1  138.    1.    3.   15.    1.  23.0    95.2 0.119 
##  2     2     1  138.    1.    3.   17.    1.  23.0    95.2 0.0183
##  3     3     1  138.    1.    3.   18.    1.  22.8    95.2 0.128 
##  4     4     1  138.    1.    3.   21.    1.  23.2    95.2 0.0398
##  5     5     1  138.    1.    3.   23.    2.  23.2    95.1 0.0346
##  6     6     1  138.    1.    3.   23.    1.  23.2    95.1 0.154 
##  7     7     1  138.  281.    3.   16.    1.  23.0    95.2 0.0963
##  8     8     1  138.  281.    3.   17.    1.  23.0    95.1 0.0606
##  9     9     1  138.  281.    3.   18.    1.  22.8    95.1 0.0842
## 10    10     1  138.  281.    3.   21.    1.  23.3    95.1 0.0973
## # ... with 290 more rows
…
2.4.2.4 Differences among 5 probes

probe_means_run <- gauge_study %>%
  group_by(PROBE, WAFER, RUN) %>%
  summarise(n = n(), probe_mean = mean(AVERAGE)) %>%
  unite(join_id, WAFER, RUN, sep = "_", remove = FALSE) %>%
  ungroup()

probe_means_run

## # A tibble: 50 x 6
##    PROBE join_id WAFER   RUN     n probe_mean
##    <dbl> <chr>   <dbl> <int> <int>      <dbl>
##  1    1. 138_1    138.     1     6       95.2
##  2    1. 138_2    138.     2     6       95.2
##  3    1. 139_1    139.     1     6       99.3
##  4    1. 139_2    139.     2     6       99.4
##  5    1. 140_1    140.     1     6       96.1
##  6    1. 140_2    140.     2     6       96.1
##  7    1. 141_1    141.     1     6      101. 
##  8    1. 141_2    141.     2     6      101. 
##  9    1. 142_1    142.     1     6       94.3
## 10    1. 142_2    142.     2     6       94.3
## # ... with 40 more rows
…
delta_probes <- left_join(probe_means_run, wafer_means_run, by = "join_id") %>%
  mutate(delta_probes_wafer = probe_mean - wafer_means)

delta_probes

## # A tibble: 50 x 11
##    PROBE join_id WAFER.x RUN.x   n.x probe_mean WAFER.y RUN.y   n.y
##    <dbl> <chr>     <dbl> <int> <int>      <dbl>   <dbl> <int> <int>
##  1    1. 138_1      138.     1     6       95.2    138.     1    30
##  2    1. 138_2      138.     2     6       95.2    138.     2    30
##  3    1. 139_1      139.     1     6       99.3    139.     1    30
##  4    1. 139_2      139.     2     6       99.4    139.     2    30
##  5    1. 140_1      140.     1     6       96.1    140.     1    30
##  6    1. 140_2      140.     2     6       96.1    140.     2    30
##  7    1. 141_1      141.     1     6      101.     141.     1    30
##  8    1. 141_2      141.     2     6      101.     141.     2    30
##  9    1. 142_1      142.     1     6       94.3    142.     1    30
## 10    1. 142_2      142.     2     6       94.3    142.     2    30
## # ... with 40 more rows, and 2 more variables: wafer_means <dbl>,
## #   delta_probes_wafer <dbl>
…
Table of estimates for probe #2362

A graphical analysis shows repeatability standard deviations plotted by wafer and probe… The plots show that for both runs the precision of this probe is better than for the other probes.

Probe #2362, because of its superior precision, was chosen as the tool for measuring all 100 ohm.cm resistivity wafers at NIST. Therefore, the remainder of the analysis focuses on this probe.

2.4.2.6 probe #2362

probe_2362 <- gauge_study %>%
  filter(PROBE == 2362)

probe_2362

## # A tibble: 60 x 10
##    rowid   RUN WAFER PROBE MONTH   DAY    OP  TEMP AVERAGE STDDEV
##    <int> <int> <dbl> <dbl> <dbl> <dbl> <dbl> <dbl>   <dbl>  <dbl>
##  1    25     1  138. 2362.    3.   15.    1.  23.1    95.1 0.0480
##  2    26     1  138. 2362.    3.   17.    1.  23.0    95.1 0.0577
##  3    27     1  138. 2362.    3.   18.    1.  23.0    95.1 0.0516
##  4    28     1  138. 2362.    3.   22.    1.  23.2    95.1 0.0386
##  5    29     1  138. 2362.    3.   23.    2.  23.3    95.1 0.0256
##  6    30     1  138. 2362.    3.   24.    2.  23.1    95.1 0.0420
##  7    55     1  139. 2362.    3.   15.    1.  23.1    99.3 0.0818
##  8    56     1  139. 2362.    3.   17.    1.  23.0    99.3 0.0723
##  9    57     1  139. 2362.    3.   18.    1.  22.9    99.3 0.0756
## 10    58     1  139. 2362.    3.   22.    1.  23.3    99.4 0.0475
## # ... with 50 more rows
…
