An Incomplete Solutions Guide to the NIST/SEMATECH e-Handbook of Statistical Methods
…
4.3.1 Load cell output

Load cell calibration

The data collected in the calibration experiment consisted of a known load, applied to the load cell, and the corresponding deflection of the cell from its nominal position. Forty measurements were made over a range of loads from 150,000 to 3,000,000 units. The data were collected in two sets in order of increasing load. The systematic run order makes it difficult to determine whether or not there was any drift in the load cell or measuring equipment over time. Assuming there is no drift, however, the experiment should provide a good description of the relationship between the load applied to the cell and its response.

library(tidyverse)

load_cell <- read_table2(
  "NIST data/PONTIUS.dat", skip = 25, col_names = FALSE, col_types = "dd") %>%
  rename(Deflection = X1, Load = X2)
load_cell

## # A tibble: 40 x 2
##    Deflection     Load
##         <dbl>    <dbl>
##  1      0.110  150000.
##  2      0.220  300000.
##  3      0.329  450000.
##  4      0.439  600000.
##  5      0.548  750000.
##  6      0.657  900000.
##  7      0.766 1050000.
##  8      0.875 1200000.
##  9      0.983 1350000.
## 10      1.09  1500000.
## # ... with 30 more rows
…
4.3.1.3 Model Refinement

\[ D = \beta_0 + \beta_1 L + \beta_2 L^2 + \varepsilon \]

We can use the linear model function, lm(), by creating a new variable \(L^2\).

load_cell_2 <- mutate(load_cell, Load_squared = Load^2)
load_cell_2

## # A tibble: 40 x 3
##    Deflection     Load Load_squared
##         <dbl>    <dbl>        <dbl>
##  1      0.110  150000.      2.25e10
##  2      0.220  300000.      9.00e10
##  3      0.329  450000.      2.02e11
##  4      0.439  600000.      3.60e11
##  5      0.548  750000.      5.62e11
##  6      0.657  900000.      8.10e11
##  7      0.766 1050000.      1.10e12
##  8      0.875 1200000.      1.44e12
##  9      0.983 1350000.      1.82e12
## 10      1.09  1500000.      2.25e12
## # ... with 30 more rows
…
4.4.4 Observation Data

observation_summary <- anscombe_models %>%
  rowwise() %>%
  augment(mod)

observation_summary

## # A tibble: 44 x 10
## # Groups:   group [4]
##    group  y_values x_values .fitted .se.fit  .resid   .hat .sigma  .cooksd
##    <chr>     <dbl>    <dbl>   <dbl>   <dbl>   <dbl>  <dbl>  <dbl>    <dbl>
##  1 group1     8.04      10.    8.00   0.391  0.0390 0.100    1.31  6.14e-5
##  2 group1     6.95       8.    7.00   0.391 -0.0508 0.100    1.31  1.04e-4
##  3 group1     7.58      13.    9.50   0.601 -1.92   0.236    1.06  4.89e-1
##  4 group1     8.81       9.    7.50   0.373  1.31   0.0909   1.22  6.16e-2
##  5 group1     8.33      11.    8.50   0.441 -0.171  0.127    1.31  1.60e-3
##  6 group1     9.96      14.   10.0    0.698 -0.0414 0.318    1.31  3.83e-4
##  7 group1     7.24       6.    6.00   0.514  1.24   0.173    1.22  1.27e-1
##  8 group1     4.26       4.    5.00   0.698 -0.740  0.318    1.27  1.23e-1
##  9 group1    10.8       12.    9.00   0.514  1.84   0.173    1.10  2.79e-1
## 10 group1     4.82       7.    6.50   0.441 -1.68   0.127    1.15  1.54e-1
## # ... with 34 more rows, and 1 more variable: .std.resid <dbl>
…
