An Incomplete Solutions Guide to the NIST/SEMATECH e-Handbook of Statistical Methods
…
5.2.1.4 Ordered data plot

There are several differnet ways we could structure an ordered data plot; below is an example.

eddy_probe_tidy <- eddy_probe %>%
  gather(key = factor_setting, value = value_setting, number_turns, winding_distance, wire_gauge)
eddy_probe_tidy

## # A tibble: 24 x 4
##    probe_impedance run_sequence factor_setting   value_setting
##              <dbl>        <int> <chr>                    <int>
##  1           1.70             2 number_turns                -1
##  2           4.57             8 number_turns                 1
##  3           0.550            3 number_turns                -1
##  4           3.39             6 number_turns                 1
##  5           1.51             7 number_turns                -1
##  6           4.59             1 number_turns                 1
##  7           0.670            4 number_turns                -1
##  8           4.29             5 number_turns                 1
##  9           1.70             2 winding_distance            -1
## 10           4.57             8 winding_distance            -1
## # ... with 14 more rows
…
