An Incomplete Solutions Guide to the NIST/SEMATECH e-Handbook of Statistical Methods
…
## Parsed with column specification:
## cols(
##   X1 = col_integer(),
##   X2 = col_integer(),
##   X3 = col_character(),
##   X4 = col_double(),
##   X5 = col_integer(),
##   X6 = col_double()
## )

litho

## # A tibble: 450 x 6
##    cassette wafer site  raw_linewidth run_number cleaned_linewidth
##       <int> <int> <chr>         <dbl>      <int>             <dbl>
##  1        1     1 Top            3.20          1              3.20
##  2        1     1 Lef            2.25          2              2.25
##  3        1     1 Cen            2.07          3              2.07
##  4        1     1 Rgt            2.42          4              2.41
##  5        1     1 Bot            2.39          5              2.38
##  6        1     2 Top            2.65          6              2.64
##  7        1     2 Lef            2.00          7              1.99
##  8        1     2 Cen            1.86          8              1.85
##  9        1     2 Rgt            2.14          9              2.12
## 10        1     2 Bot            1.98         10              1.96
## # ... with 440 more rows
…
6.2.1.6 DOE plots

We need to gather the factors in to a single column

litho_DOE <- litho %>% 
  gather(`cassette`, `wafer`, `site`, key = DOE_factors, value = "value")
litho_DOE

## # A tibble: 1,350 x 5
##    raw_linewidth run_number cleaned_linewidth DOE_factors value
##            <dbl>      <int>             <dbl> <chr>       <chr>
##  1          3.20          1              3.20 cassette    1    
##  2          2.25          2              2.25 cassette    1    
##  3          2.07          3              2.07 cassette    1    
##  4          2.42          4              2.41 cassette    1    
##  5          2.39          5              2.38 cassette    1    
##  6          2.65          6              2.64 cassette    1    
##  7          2.00          7              1.99 cassette    1    
##  8          1.86          8              1.85 cassette    1    
##  9          2.14          9              2.12 cassette    1    
## 10          1.98         10              1.96 cassette    1    
## # ... with 1,340 more rows

litho_group <- litho_DOE %>%
  group_by(DOE_factors, value)
litho_group

## # A tibble: 1,350 x 5
## # Groups:   DOE_factors, value [38]
##    raw_linewidth run_number cleaned_linewidth DOE_factors value
##            <dbl>      <int>             <dbl> <chr>       <chr>
##  1          3.20          1              3.20 cassette    1    
##  2          2.25          2              2.25 cassette    1    
##  3          2.07          3              2.07 cassette    1    
##  4          2.42          4              2.41 cassette    1    
##  5          2.39          5              2.38 cassette    1    
##  6          2.65          6              2.64 cassette    1    
##  7          2.00          7              1.99 cassette    1    
##  8          1.86          8              1.85 cassette    1    
##  9          2.14          9              2.12 cassette    1    
## 10          1.98         10              1.96 cassette    1    
## # ... with 1,340 more rows

litho_summary <- litho_group %>%
  summarise(mean_factor = mean(raw_linewidth), count = n())
litho_summary

## # A tibble: 38 x 4
## # Groups:   DOE_factors [?]
##    DOE_factors value mean_factor count
##    <chr>       <chr>       <dbl> <int>
##  1 cassette    1            2.27    15
##  2 cassette    10           2.29    15
##  3 cassette    11           2.68    15
##  4 cassette    12           1.81    15
##  5 cassette    13           2.73    15
##  6 cassette    14           2.97    15
##  7 cassette    15           1.83    15
##  8 cassette    16           2.45    15
##  9 cassette    17           2.28    15
## 10 cassette    18           2.39    15
## # ... with 28 more rows
…
litho_summary_sd <- litho_group %>%
  summarise(sd_factor = sd(raw_linewidth), count = n())
litho_summary_sd

## # A tibble: 38 x 4
## # Groups:   DOE_factors [?]
##    DOE_factors value sd_factor count
##    <chr>       <chr>     <dbl> <int>
##  1 cassette    1         0.403    15
##  2 cassette    10        0.428    15
##  3 cassette    11        0.486    15
##  4 cassette    12        0.449    15
##  5 cassette    13        0.345    15
##  6 cassette    14        0.403    15
##  7 cassette    15        0.433    15
##  8 cassette    16        0.466    15
##  9 cassette    17        0.492    15
## 10 cassette    18        0.496    15
## # ... with 28 more rows
…
6.2.1.7.2 Summarise by wafer

litho_wafer <- litho %>%
  group_by(cassette, wafer) %>%
  summarise(wafer_mean = mean(raw_linewidth), wafer_sd = sd(raw_linewidth)) %>%
  rowid_to_column(var = "wafer_number") %>%
  ungroup()

litho_wafer

## # A tibble: 90 x 5
##    wafer_number cassette wafer wafer_mean wafer_sd
##           <int>    <int> <int>      <dbl>    <dbl>
##  1            1        1     1       2.47    0.431
##  2            2        1     2       2.13    0.311
##  3            3        1     3       2.22    0.456
##  4            4        2     1       2.43    0.443
##  5            5        2     2       1.87    0.296
##  6            6        2     3       2.05    0.322
##  7            7        3     1       1.68    0.331
##  8            8        3     2       1.83    0.311
##  9            9        3     3       1.70    0.333
## 10           10        4     1       2.18    0.441
## # ... with 80 more rows
…
6.2.1.7.6 Summarise by cassette

litho_cassette <- litho %>%
  group_by(cassette) %>%
  summarise(cassette_mean = mean(raw_linewidth), cassette_sd = sd(raw_linewidth)) %>%
  ungroup()

litho_cassette

## # A tibble: 30 x 3
##    cassette cassette_mean cassette_sd
##       <int>         <dbl>       <dbl>
##  1        1          2.27       0.403
##  2        2          2.12       0.412
##  3        3          1.74       0.309
##  4        4          2.44       0.515
##  5        5          3.02       0.528
##  6        6          2.58       0.446
##  7        7          2.32       0.472
##  8        8          1.78       0.449
##  9        9          1.78       0.422
## 10       10          2.29       0.428
## # ... with 20 more rows
…
