An Incomplete Solutions Guide to the NIST/SEMATECH e-Handbook of Statistical Methods
…
7.4.1 plot of Student’s (W.S. Gossett) data

corn_tidy <- corn %>%
  gather(reg, kiln, key = treatment, value = "yield")

corn_tidy

## # A tibble: 22 x 4
##    sample year   treatment yield
##     <int> <chr>  <chr>     <dbl>
##  1      1 cy1889 reg       1903.
##  2      2 cy1889 reg       1935.
##  3      3 cy1889 reg       1910.
##  4      4 cy1889 reg       2496.
##  5      5 cy1889 reg       2108.
##  6      6 cy1889 reg       1961.
##  7      7 cy1889 reg       2060.
##  8      8 cy1900 reg       1444.
##  9      9 cy1900 reg       1612.
## 10     10 cy1900 reg       1316.
## # ... with 12 more rows
…
\[
\textbf{Total Sum of Squares} \\ 
~ \\
SST = \sum_{i=1}^k \sum_{j=1}^{n_i} \left ( x_{ij} - \overline{\overline{x}} \right )^2
\]

7.5.1 Tidy the data and compute the sum of squares

lesson1_gather <- lesson1_data %>%
  gather(key = treatment, value = value, Control, F1, F2, F3)
lesson1_gather

## # A tibble: 24 x 2
##    treatment value
##    <chr>     <dbl>
##  1 Control    21.0
##  2 Control    19.5
##  3 Control    22.5
##  4 Control    21.5
##  5 Control    20.5
##  6 Control    21.0
##  7 F1         32.0
##  8 F1         30.5
##  9 F1         25.0
## 10 F1         27.5
## # ... with 14 more rows
…
7.8.1 Tidy up the data

ecoli_tidy <- ecoli %>%
  gather(key = "site", value = "counts", WR01, WR02, WR03, WR04)

ecoli_tidy

## # A tibble: 32 x 3
##    Month     site  counts
##    <chr>     <chr>  <dbl>
##  1 March     WR01    3.00
##  2 April     WR01  121.  
##  3 May       WR01  308.  
##  4 June      WR01   44.1 
##  5 July      WR01  108.  
##  6 August    WR01  107.  
##  7 September WR01  148.  
##  8 October   WR01   43.2 
##  9 March     WR02   57.6 
## 10 April     WR02   14.6 
## # ... with 22 more rows
…
